﻿1; 1 John 1:1-3:10 ; Psalm 1 ;Matthew 1:1-17 
2; 1 Jn 3:11-5:21 ; Ps 2 ; Mt 1:18-25 
3; Genesis 1-3 ; Ps 3 ; Mt 2:1-12 
4; Gn 4-5 ; Ps 4 ; Mt 2:13-23 
5; Gn 6-8 ; Ps 5 ; Mt 3 
6; Gn 9:1-11:26 ; Ps 6 ; Mt 4:1-17 
7; Gn 11:27-13:18 ; Ps 7 ; Mt 4:18-25 
8; Gn 14-15 ; Ps 8 ; Mt 5:1-12 
9; Gn 16-17 ; Ps 9 ; Mt 5:13-26 
10; Gn 18-19 ; Ps 10 ; Mt 5:27-37 
11; Gn 20-21 ; Ps 11 ; Mt 5:38-48 
12; Gn 22 ; Ps 12 ; Mt 6:1-18 
13; Gn 23:1-25:18 ; Ps 13 ; Mt 6:19-34 
14; Gn 25:19-26:35 ; Ps 14 ; Mt 7 
15; Gn 27-28 ; Ps 15 ; Mt 8:1-17 
16; Gn 29-30 ; Ps 16 ; Mt 8:18-34 
17; Gn 31-32 ; Ps 17 ; Mt 9:1-17 
18; Gn 33-34 ; Ps 18 ; Mt 9:18-38 
19; Gn 35-36 ; Ps 19 ; Mt 10:1-15 
20; Gn 37-38 ; Ps 20 ; Mt 10:16-33 
21; Gn 39-40 ; Ps 21 ; Mt 10:34-11:1 
22; Gn 41-43 ; Ps 22 ; Mt 11:2-19 
23; Gn 44-45 ; Ps 23 ; Mt 11:20-30 
24; Gn 46-48 ; Ps 24 ; Mt 12:1-14 
25; Gn 49-50 ; Ps 25 ; Mt 12:15-37 
26; Phil 1:1-2:18 ; Ps 26 ; Mt 12:38-50 
27; Phil 2:19-4:23 ; Ps 27 ; Mt 13:1-30 
28; Exodus 1-3 ; Ps 28 ; Mt 13:31-53 
29; Ex 4:1-6:27 ; Ps 29 ;Mt 13:54-14:21 
30; Ex 7-8 ; Ps 30 ; Mt 14:22-36 
31; Ex 9-11 ; Ps 31 ; Mt 15:1-20 
32; Ex 12-14 ; Ps 32 ; Mt 15:21-39 
33; Ex 15-16 ; Ps 33 ; Mt 16:1-12 
34; Ex 17-18 ; Ps 34 ; Mt 16:13-28 
35; Ex 19-20 ; Ps 35 ; Mt 17:1-13 
36; Ex 21-22 ; Ps 36 ; Mt 17:14-27 
37; Ex 23-24 ; Ps 37 ; Mt 18:1-20 
38; Ex 25-27 ; Ps 38 ; Mt 18:21-35 
39; Ex 28-29 ; Ps 39 ; Mt 19:1-15 
40; Ex 30-31 ; Ps 40 ; Mt 19:16-30 
41; Ex 32-33 ; Ps 41 ; Mt 20:1-16 
42; Ex 34-36 ; Ps 42 ; Mt 20:17-34 
43; Ex 37-38 ; Ps 43 ; Mt 21:1-17 
44; Ex 39-40 ; Ps 44 ; Mt 21:18-32 
45; Romans 1-2 ; Ps 45 ; Mt 21:33-46 
46; Rom 3-4 ; Ps 46 ; Mt 22:1-14 
47; Rom 5-6 ; Ps 47 ; Mt 22:15-33 
48; Rom 7-8 ; Ps 48 ; Mt 22:34-46 
49; Rom 9-10 ; Ps 49 ; Mt 23 
50; Rom 11-12 ; Ps 50 ; Mt 24:1-28 
51; Rom 13-14 ; Ps 51 ; Mt 24:29-51 
52; Rom 15-16 ; Ps 52 ; Mt 25:1-30 
53; Leviticus 1-3 ; Ps 53 ; Mt 25:31-46 
54; Lv 4-5 ; Ps 54 ; Mt 26:1-25 
55; Lv 6-7 ; Ps 55 ; Mt 26:26-56 
56; Lv 8-10 ; Ps 56 ; Mt 26:57-75 
57; Lv 11-13 ; Ps 57 ; Mt 27:1-26 
58; Lv 14-16 ; Ps 58 ; Mt 27:27-66 
59; 2 Jn, 3 Jn ; Ps 59 ; Mt 28 
60; Lv 17-18 ; Ps 60 ; Mk 1:1-13 
61; Lv 19-20 ; Ps 61 ; Mk 1:14-31 
62; Lv 21-23 ; Ps 62 ; Mk 1:32-45 
63; Lv 24-25 ; Ps 63 ; Mk 2:1-17 
64; Lv 26-27 ; Ps 64 ; Mk 2:18-28 
65; 1 Corinthians 1-3 ; Ps 65 ; Mk 3:1-19 
66; 1 Cor 4-6 ; Ps 66 ; Mk 3:20-35 
67; 1 Cor 7-9 ; Ps 67 ; Mk 4:1-25 
68; 1 Cor 10-11 ; Ps 68 ; Mk 4:26-41 
69; 1 Cor 12-13 ; Ps 69 ; Mk 5:1-20 
70; 1 Cor 14-16 ; Ps 70 ; Mk 5:21-43 
71; Numbers 1-3 ; Ps 71 ; Mk 6:1-29 
72; Nm 4-5 ; Ps 72 ; Mk 6:30-56 
73; Nm 6-7 ; Ps 73 ; Mk 7:1-23 
74; Nm 8:1-10:10 ; Ps 74 ; Mk 7:24-37 
75; Nm 10:11-12:16 ; Ps 75 ; Mk 8:1-26 
76; Nm 13-14 ; Ps 76 ; Mk 8:27-38 
77; Nm 15-16 ; Ps 77 ; Mk 9:1-32 
78; Nm 17-18 ; Ps 78 ; Mk 9:33-50 
79; Nm 19:1-22:1 ; Ps 79 ; Mk 10:1-31 
80; Nm 22:2-24:25 ; Ps 80 ; Mk 10:32-53 
81; Nm 25-26 ; Ps 81 ; Mk 11:1-14 
82; Nm 27-28 ; Ps 82 ; Mk 11:15-33 
83; Nm 29-30 ; Ps 83 ; Mk 12:1-27 
84; Nm 31-32 ; Ps 84 ; Mk 12:28-44 
85; Nm 33-34 ; Ps 85 ; Mk 13:1-23 
86; Nm 35-36 ; Ps 86 ; Mk 13:24-37 
87; 2 Corinthians 1-3 ; Ps 87 ; Mk 14:1-21 
88; 2 Cor 4-6 ; Ps 88 ; Mk 14:22-52 
89; 2 Cor 7-9 ; Ps 89 ; Mk 14:53-72 
90; 2 Cor 10-11 ; Ps 90 ; Mk 15:1-15 
91; 2 Cor 12-13 ; Ps 91 ; Mk 15:16-47 
92; Deuteronomy 1-3 ; Ps 92 ; Mk 16 
93; Dt 4-5 ; Ps 93 ; Lk 1:1-38 
94; Dt 6-8 ; Ps 94 ; Lk 1:39-80 
95; Dt 9-11 ; Ps 95 ; Lk 2:1-21 
96; Dt 12-14 ; Ps 96 ; Lk 2:22-52 
97; Dt 15-17 ; Ps 97 ; Lk 3:1-22 
98; Dt 18-20 ; Ps 98 ; Lk 3:23-38 
99; Dt 21-23 ; Ps 99 ; Lk 4:1-13 
100; Dt 24-26 ; Ps 100 ; Lk 4:14-44 
101; Dt 27-28 ; Ps 101 ; Lk 5:1-26 
102; Dt 29-30 ; Ps 102 ; Lk 5:27-39 
103; Dt 31-32 ; Ps 103 ; Lk 6:1-26 
104; Dt 33-34 ; Ps 104 ; Lk 6:27-49 
105; Galatians 1-3 ; Ps 105 ; Lk 7:1-28 
106; Gal 4-6 ; Ps 106 ; Lk 7:29-50 
107; Joshua 1-3 ; Ps 107 ; Lk 8:1-25 
108; Jos 4-6 ; Ps 108 ; Lk 8:26-56 
109; Jos 7-9 ; Ps 109 ; Lk 9:1-27 
110; Jos 10-12 ; Ps 110 ; Lk 9:28-50 
111; Jos 13-16 ; Ps 111 ; Lk 9:51-62 
112; Jos 17-19 ; Ps 112 ; Lk 10:1-24 
113; Jos 20-22 ; Ps 113 ; Lk 10:25-42 
114; Jos 23-24 ; Ps 114 ; Lk 11:1-28 
115; Eph 1:1-3:24 ; Ps 115 ; Lk 11:29-54 
116; Eph 3:25-6:24 ; Ps 116-117 ; Lk 12:1-34 
117; Judges 1-3 ; Ps 118 ; Lk 12:35-59 
118; Jgs 4-5 ; Ps 119:1-48 ; Lk 13:1-17 
119; Jgs 6-9 ; Ps 119:49-88 ; Lk 13:18-35 
120; Jgs 10-12 ; Ps 119:89-136 ; Lk 14 
121; Jgs 13-16 ; Ps 119:137-176 ; Lk 15:1-10 
122; Jgs 17-19 ; Ps 120-121 ; Lk 15:11-32 
123; Jgs 20-21 ; Ps 122 ; Lk 16:1-15 
124; Ruth ; Ps 123 ; Lk 16:16-31 
125; 1 Samuel 1-4 ; Ps 124 ; Lk 17:1-19 
126; 1 Sm 5-7 ; Ps 125 ; Lk 17:20-37 
127; 1 Sm 8-10 ; Ps 126 ; Lk 18:1-14 
128; 1 Sm 11-12 ; Ps 127 ; Lk 18:15-43 
129; 1 Sm 13-14 ; Ps 128 ; Lk 19:1-27 
130; 1 Sm 15-16 ; Ps 129 ; Lk 19:28-48 
131; 1 Sm 17 ; Ps 130 ; Lk 20:1-19 
132; 1 Sm 18-20 ; Ps 131 ; Lk 20:20-47 
133; 1 Sm 21-23 ; Ps 132 ; Lk 21:1-19 
134; 1 Sm 24-25 ; Ps 133 ; Lk 21:20-38 
135; 1 Sm 26-28 ; Ps 134 ; Lk 22:1-38 
136; 1 Sm 29-31 ; Ps 135 ; Lk 22:39-71 
137; 2 Sm 1-3 ; Ps 136 ; Lk 23:1-32 
138; 2 Sm 4-6 ; Ps 137 ; Lk 23:33-56 
139; 2 Sm 7-10 ; Ps 138 ; Lk 24:1-35 
140; 2 Sm 11-12 ; Ps 139 ; Lk 24:36-53 
141; 2 Sm 13-14 ; Ps 140 ; John 1:1-18 
142; 2 Sm 15-17 ; Ps 141 ; Jn 1:19-51 
143; 2 Sm 18-20 ; Ps 142 ; Jn 2:1-12 
144; 2 Sm 21-22 ; Ps 143 ; Jn 2:13-25 
145; 2 Sm 23-24 ; Ps 144 ; Jn 3:1-21 
146; Colossians 1-2 ; Ps 145 ; Jn 3:22-36 
147; Col 3-4 ; Ps 146 ; Jn 4:1-42 
148; 1 Kings 1-2 ; Ps 147 ; Jn 4:43-54 
149; 1 Kgs 3-5 ; Ps 148 ; Jn 5:1-30 
150; 1 Kgs 6-8 ; Ps 149 ; Jn 5:31-47 
151; 1 Kgs 9-11 ; Ps 150 ; Jn 6:1-24 
152; 1 Kgs 12-14 ; Proverbs 1 ; Jn 6:25-59 
153; 1 Kgs 15-16 ; Prv 2 ; Jn 6:60-71 
154; 1 Kgs 17-18 ; Prv 3 ; Jn 7:1-13 
155; 1 Kgs 19 ; Prv 4 ; Jn 7:14-36 
156; 1 Kgs 20-22 ; Prv 5 ; Jn 7:37-52 
157; 1 Thess 1-3 ; Prv 6 ; Jn 7:53-8:11 
158; 1 Thes 4-5 ; Prv 7 ; Jn 8:12-30 
159; 2 Kgs 1-2 ; Prv 8 ; Jn 8:31-59 
160; 2 Kgs 3-4 ; Prv 9 ; Jn 9 
161; 2 Kgs 5-6 ; Prv 10 ; Jn 10:1-21 
162; 2 Kgs 7-8 ; Prv 11 ; Jn 10:22-42 
163; 2 Kgs 9-10 ; Prv 12 ; Jn 11:1-54 
164; 2 Kgs 11-13 ; Prv 13 ;Jn 11:55-12:36 
165; 2 Kgs 14-15 ; Prv 14 ; Jn 12:37-50 
166; 2 Kgs 16-17 ; Hosea 1 ; Jn 13:1-20 
167; 2 Kgs 18-19 ; Hos 2 ; Jn 13:21-38 
168; 2 Kgs 20-21 ; Hos 3 ; Jn 14 
169; 2 Kgs 22-23 ; Hos 4 ; Jn 15:1-10 
170; 2 Kgs 24-25 ; Hos 5:1-14 ; Jn 15:11-17 
171; 2 Thessalonians ; Hos 5:15-7:2 ;Jn 15:18-16:4a 
172; Amos 1-3 ; Hos 7:3-12 ; Jn 16:4b-15 
173; Am 4-6 ; Hos 7:12-8:14 ; Jn 16:16-33 
174; Am 7-9 ; Hos 9 ; Jn 17 
175; Micah 1-3 ; Hos 10 ; Jn 18:1-27 
176; Mic 4-5 ; Hos 11 ; Jn 18:27-40 
177; Mic 6-7 ; Hos 12:1-13:1 ; Jn 19:1-30 
178; 1 Timothy 1-3 ; Hos 13:2-14:1 ; Jn 19:31-42 
179; 1 Tim 4-6 ; Hos 14:2-10 ; Jn 20:1-18 
180; 1 Chronicles 1-3 ; Prv 15 ; Jn 20:19-31 
181; 1 Chr 4-6 ; Prv 16 ; Jn 21:1-14 
182; 1 Chr 7:1-9:34 ; Prv 17 ; Jn 21:15-25 
183;1 Chr 9:35-11:47 ;Prv 18 ;Matthew 1:1-17 
184;1 Chr 12-14 ;Prv 19 ;Mt 1:18-25 
185;1 Chr 15-17 ;Prv 20 ;Mt 2:1-12 
186;1 Chr 18-20 ;Prv 21 ;Mt 2:13-23 
187;1 Chr 21-22 ;Prv 22 ;Mt 3 
188;1 Chr 23-25 ;Prv 23 ;Mt 4:1-17 
189;1 Chr 26-27 ;Prv 24 ;Mt 4:18-25 
190;1 Chr 28-29 ;Prv 25 ;Mt 5:1-12 
191;2 Timothy ;Prv 26 ;Mt 5:13-26 
192;2 Chr 1-2 ;Prv 27 ;Mt 5:27-37 
193;2 Chr 3-5 ;Prv 28 ;Mt 5:38-48 
194;2 Chr 6-7 ;Prv 29 ;Mt 6:1-18 
195;2 Chr 8-9 ;Prv 30 ;Mt 6:19-34 
196;2 Chr 10-12 ;Prv 31 ;Mt 7 
197;2 Chr 13-15 ;Isaiah 1 ;Mt 8:1-17 
198;2 Chr 16-18 ;Is 2 ;Mt 8:18-34 
199;2 Chr 19-21 ;Is 3 ;Mt 9:1-17 
200;2 Chr 22-23 ;Is 4 ;Mt 9:18-38 
201;2 Chr 24-25 ;Is 5 ;Mt 10:1-15 
202;2 Chr 26-27 ;Is 6 ;Mt 10:16-33 
203;2 Chr 28-29 ;Is 7 ;Mt 10:34-11:1 
204;2 Chr 30-31 ;Is 8 ;Mt 11:2-19 
205;2 Chr 32-33 ;Is 9 ;Mt 11:20-30 
206;2 Chr 34-36 ;Is 10 ;Mt 12:1-14 
207;Zephaniah ;Is 11 ;Mt 12:15-37 
208;Titus ;Is 12 ;Mt 12:38-50 
209;Nahum ;Is 13 ;Mt 13:1-30 
210;Philemon ;Is 14 ;Mt 13:31-53 
211;Habakkuk ;Is 15 ;Mt 13:54-14:21 
212;James 1-3 ;Is 16 ;Mt 14:22-36 
213;Jas 4-5 ;Is 17 ;Mt 15:1-20 
214;Jeremiah 1-2 ;Is 18 ;Mt 15:21-39 
215;Jer 3-4 ;Is 19 ;Mt 16:1-12 
216;Jer 5-6 ;Is 20 ;Mt 16:13-28 
217;Jer 7-8 ;Is 21 ;Mt 17 
218;Jer 9-10 ;Is 22 ;Mt 18:1-20 
219;Jer 11-12 ;Is 23 ;Mt 18:21-35 
220;Jer 13-14 ;Is 24 ;Mt 19:1-15 
221;Jer 15-16 ;Is 25 ;Mt 19:16-30 
222;Jer 17-18 ;Is 26 ;Mt 20:1-16 
223;Jer 19-20 ;Is 27 ;Mt 20:17-34 
224;Jer 21-22 ;Is 28 ;Mt 21:1-17 
225;Jer 23-24 ;Is 29 ;Mt 21:18-32 
226;Jer 25-26 ;Is 30 ;Mt 21:33-46 
227;Jer 27-29 ;Is 31 ;Mt 22:1-14 
228;Jer 30-31 ;Is 32 ;Mt 22:15-33 
229;Jer 32-33 ;Is 33 ;Mt 22:34-46 
230;Jer 34-35 ;Is 34 ;Mt 23 
231;Jer 36-37 ;Is 35 ;Mt 24:1-28 
232;Jer 38-39 ;Is 36 ;Mt 24:29-51 
233;Jer 40-42 ;Is 37 ;Mt 25:1-30 
234;Jer 43-44 ;Is 38 ;Mt 25:31-46 
235;Jer 45-47 ;Is 39 ;Mt 26:1-25 
236;Jer 48-49 ;Lam 1 ;Mt 26:26-56 
237;Jer 50-51 ;Lam 2 ;Mt 26:57-75 
238;Jer 52 ;Lam 3 ;Mt 27:1-26 
239;Baruch 1:1-3:8 ;Lam 4 ;Mt 27:27-66 
240;Bar 3:9-5:9 ;Lam 5 ;Mt 28 
241;Bar 6 ;Is 40 ;Mk 1:1-13 
242;Tobit 1-3 ;Is 41 ;Mk 1:14-31 
243;Tb 4-6 ;Is 42 ;Mk 1:32-45 
244;Tb 7-11 ;Is 43 ;Mk 2:1-17 
245;Tb 12-14 ;Is 44 ;Mk 2:18-28 
246;Ezekiel 1-3 ;Is 45 ;Mk 3:1-19 
247;Ez 4-5 ;Is 46 ;Mk 3:20-35 
248;Ez 6-8 ;Is 47 ;Mk 4:1-25 
249;Ez 9-11 ;Is 48 ;Mk 4:26-41 
250;Ez 12-13 ;Is 49 ;Mk 5:1-20 
251;Ez 14-16 ;Is 50 ;Mk 5:21-43 
252;Ez 17-18 ;Is 51 ;Mk 6:1-29 
253;Ez 19-20 ;Is 52 ;Mk 6:30-56 
254;Ez 21-22 ;Is 53 ;Mk 7:1-23 
255;Ez 23-24 ;Is 54 ;Mk 7:24-37 
256;Ez 25-26 ;Is 55 ;Mk 8:1-26 
257;Ez 27-28 ;Is 56 ;Mk 8:27-38 
258;Ez 29-30 ;Is 57 ;Mk 9:1-32 
259;Ez 31-32 ;Is 58 ;Mk 9:33-50 
260;Ez 33-34 ;Is 59 ;Mk 10:1-31 
261;Ez 35-36 ;Is 60 ;Mk 10:32-53 
262;Ez 37-39 ;Is 61 ;Mk 11:1-14 
263;Ez 40-42 ;Is 62 ;Mk 11:15-33 
264;Ez 43-44 ;Is 63 ;Mk 12:1-27 
265;Ez 45-46 ;Is 64 ;Mk 12:28-44 
266;Ez 47-48 ;Is 65 ;Mk 13:1-23 
267;1 Peter 1-2 ;Is 66 ;Mk 13:24-37 
268;1 Pt 3-5 ;Daniel 1 ;Mk 14:1-21 
269;Haggai, Zech 1-2 ;Dn 2 ;Mk 14:22-52 
270;Zech 3-6 ;Dn 3:1-45 ;Mk 14:53-72 
271;Zech 7-9 ;Dn 3:46-100 ;Mk 15:1-15 
272;Zech 10-11 ;Dn 4 ;Mk 15:16-47 
273;Zech 12-14 ;Dn 5 ;Mk 16 
274;Esther A-2 ;Dn 6 ;Lk 1:1-38 
275;Es 3-C ;Dn 7 ;Lk 1:39-80 
276;Es D-5 ;Dn 8 ;Lk 2:1-21 
277;Es 6-E ;Dn 9 ;Lk 2:22-52 
278;Es 8-F ;Dn 10 ;Lk 3:1-22 
279;Ezra 1-2 ;Dn 11 ;Lk 3:23-38 
280;Ezra 3:1-4:23 ;Dn 12 ;Lk 4:1-13 
281;Ezra 4:24-6:22 ;Dn 13 ;Lk 4:14-44 
282;Ezra 7-8 ;Dn 14 ;Lk 5:1-26 
283;Ezta 9-10 ;Wisdom 1 ;Lk 5:27-39 
284;Nehemiah 1-3 ;Wis 2 ;Lk 6:1-26 
285;Neh 4-5 ;Wis 3 ;Lk 6:27-49 
286;Neh 6-7 ;Wis 4 ;Lk 7:1-28 
287;Neh 8-9 ;Wis 5 ;Lk 7:29-50 
288;Neh 10-11 ;Wis 6 ;Lk 8:1-25 
289;Neh 12-13 ;Wis 7 ;Lk 8:26-56 
290;Judith 1-3 ;Wis 8 ;Lk 9:1-27 
291;Jdt 4-5 ;Wis 9 ;Lk 9:28-50 
292;Jdt 6-7 ;Wis 10 ;Lk 9:51-62 
293;Jdt 8-9 ;Wis 11 ;Lk 10:1-24 
294;Jdt 10-11 ;Wis 12 ;Lk 10:25-42 
295;Jdt 12:1-14:10 ;Wis 13 ;Lk 11:1-28 
296;Jdt 14:11-16:25 ;Wis 14 ;Lk 11:29-54 
297;Malachi, Obadiah ;Wis 15 ;Lk 12:1-34 
298;Joel ;Wis 16 ;Lk 12:35-59 
299;Jonah 1-2 ;Wis 17 ;Lk 13:1-17 
300;Jon 3-4 ;Wis 18 ;Lk 13:18-35 
301;Job 1-3 ;Wis 19 ;Lk 14 
302;Jb 4-7 ; SirForeword, 1 ;Lk 15:1-10 
303;Jb 8-10 ;Sir 2 ;Lk 15:11-32 
304;Jb 11-14 ;Sir 3 ;Lk 16:1-15 
305;Jb 15-17 ;Sir 4 ;Lk 16:16-31 
306;Jb 18-19 ;Sir 5 ;Lk 17:1-19 
307;Jb 20-21 ;Sir 6 ;Lk 17:20-37 
308;Jb 22-24 ;Sir 7 ;Lk 18:1-14 
309;Jb 25-28 ;Sir 8 ;Lk 18:15-43 
310;Jb 29-31 ;Sir 9 ;Lk 19:1-1-27 
311;Jb 32-34 ;Sir 10 ;Lk 19:28-48 
312;Jb 35-37 ;Sir 11 ;Lk 20:1-19 
313;Jb 38-39 ;Sir 12 ;Lk 20:20-47 
314;Jb 40-42 ;Sir 13 ;Lk 21:1-19 
315;2 Peter ;Sir 14 ;Lk 21:20-38 
316;Ecclesiastes 1-3 ;Sir 15 ;Lk 22:1-38 
317;Ecc 4-6 ;Sir 16 ;Lk 22:39-71 
318;Ecc 7-8 ;Sir 17 ;Lk 23:1-32 
319;Ecc 9-12 ;Sir 18 ;Lk 23:33-43 
320;Song of Songs 1-4 ;Sir 19 ;Lk 23:44-56 
321;Sgs 5-8 ;Sir 20 ;Lk 24:1-35 
322;1 Maccabees 1-2 ;Sir 21 ;Lk 24:36-53 
323;1 Mac 3-4 ;Sir 22 ;John 1:1-18 
324;1 Mac 5-6 ;Sir 23 ;Jn 1:19-51 
325;1 Mac 7-8 ;Sir 24 ;Jn 2:1-12 
326;1 Mac 9-10 ;Sir 25 ;Jn 2:13-25 
327;1 Mac 11-12 ;Sir 26 ;Jn 3:1-21 
328;1 Mac 13-14 ;Sir 27 ;Jn 3:22-36 
329;1 Mac 15-16 ;Sir 28 ;Jn 4:1-42 
330;Jude ;Sir 29 ;Jn 4:43-54 
331;2 Mac 1-2 ;Sir 30 ;Jn 5:1-30 
332;2 Mac 3-4 ;Sir 31 ;Jn 5:31-47 
333;2 Mac 5-6 ;Sir 32 ;Jn 6:1-24 
334;2 Mac 7-8 ;Sir 33 ;Jn 6:25-59 
335;2 Mac 9-10 ;Sir 34 ;Jn 6:60-71 
336;2 Mac 11-12 ;Sir 35 ;Jn 7:1-13 
337;2 Mac 13-14 ;Sir 36 ;Jn 7:14-36 
338;2 Mac 15 ;Sir 37 ;Jn 7:37-52 
339;Acts 1:1-2:13 ;Sir 38 ;Jn 7:53-8:11 
340;Acts 2:14-3:26 ;Sir 39 ;Jn 8:12-30 
341;Acts 4-5 ;Sir 40 ;Jn 8:31-59 
342;Acts 6:1-8:3 ;Sir 41 ;Jn 9 
343;Acts 8:4-9:43 ;Sir 42 ;Jn 10:1-21 
344;Acts 10-11 ;Sir 43 ;Jn 10:22-42 
345;Acts 12-13 ;Sir 44 ;Jn 11:1-54 
346;Acts 14:1-15:35 ;Sir 45 ;Jn 11:55-12:19 
347;Acts 15:36-16:40 ;Sir 46 ;Jn 12:20-36 
348;Acts 17-18 ;Sir 47 ;Jn 12:37-50 
349;Acts 19-20 ;Sir 48 ;Jn 13:1-20 
350;Acts 21:1-22:29 ;Sir 49 ;Jn 13:21-38 
351;Acts 22:30-24:27 ;Sir 50 ;Jn 14 
352;Acts 25-26 ;Sir 51 ;Jn 15:1-10 
353;Acts 27-28 ;Hebrews 1 ;Jn 15:11-17 
354;Revelation 1 ;Heb 2 ;Jn 15:18-16:4a 
355;Rev 2 ;Heb 3 ;Jn 16:4b-15 
356;Rev 3 ;Heb 4 ;Jn 16:16-33 
357;Rev 4-5 ;Heb 5 ;Jn 17 
358;Rev 6-7 ;Heb 6 ;Jn 18:1-27 
359;Rev 8-9 ;Heb 7 ;Jn 18:27-40 
360;Rev 10-11 ;Heb 8 ;Jn 19:1-30 
361;Rev 12-13 ;Heb 9 ;Jn 19:31-42 
362;Rev 14-16 ;Heb 10 ;Jn 20:1-18 
363;Rev 17-18 ;Heb 11 ;Jn 20:19-31 
364;Rev 19-20 ;Heb 12 ;Jn 21:1-14 
365;Rev 21-22 ;Heb 13 ;Jn 21:15-25 
;;;
